[{
  "id": 1,
  "nombre": "4WD",
  "descripcion": "vel nisl duis ac"
}, {
  "id": 2,
  "nombre": "AirBag",
  "descripcion": "sapien iaculis congue vivamus metus arcu adipiscing"
}, {
  "id": 3,
  "nombre": "Alarma",
  "descripcion": "pede lobortis ligula sit amet eleifend"
}, {
  "id": 4,
  "nombre": "Alza Vidrios Elécrticos",
  "descripcion": "at feugiat non pretium quis lectus suspendisse"
}, {
  "id": 5,
  "nombre": "Aire Acondicionado",
  "descripcion": "est risus auctor sed"
}, {
  "id": 6,
  "nombre": "Catalítico",
  "descripcion": "quis tortor id nulla"
}, {
  "id": 7,
  "nombre": "Cierre Centralizado",
  "descripcion": "amet lobortis sapien sapien non mi"
}, {
  "id": 8,
  "nombre": "Espejos Eléctricos",
  "descripcion": "feugiat et eros vestibulum ac est"
}, {
  "id": 9,
  "nombre": "Frenos ABS",
  "descripcion": "nisi nam ultrices libero non mattis pulvinar nulla pede ullamcorper"
}, {
  "id": 10,
  "nombre": "Llantas",
  "descripcion": "laoreet ut rhoncus aliquet"
}, {
  "id": 11,
  "nombre": "Radio",
  "descripcion": "cubilia curae"
}, {
  "id": 12,
  "nombre": "Unico Dueño",
  "descripcion": "augue luctus"
}]